{
  "_meta": {
    "sources": [
      "loopback/common/models",
      "loopback/server/models",
      "../common/models",
      "./models"
    ],
    "mixins": [
      "loopback/common/mixins",
      "loopback/server/mixins",
      "../common/mixins",
      "./mixins"
    ]
  },
  "User": {
    "dataSource": "ut_movilds"
  },
  "AccessToken": {
    "dataSource": "ut_movilds",
    "public": false
  },
  "ACL": {
    "dataSource": "ut_movilds",
    "public": false
  },
  "RoleMapping": {
    "dataSource": "ut_movilds",
    "public": false
  },
  "Role": {
    "dataSource": "ut_movilds",
    "public": false
  },
  "Usuario": {
    "dataSource": "ut_movilds",
    "public": true
  },
  "Evento": {
    "dataSource": "ut_movilds",
    "public": true
  },
  "Articulo": {
    "dataSource": "ut_movilds",
    "public": true
  },
  "Galeria_foto": {
    "dataSource": "ut_movilds",
    "public": true
  },
  "Galeria_video": {
    "dataSource": "ut_movilds",
    "public": true
  },
  "Galeria_videoUTRM": {
    "dataSource": "ut_movilds",
    "public": true
  },
  "Carrera": {
    "dataSource": "ut_movilds",
    "public": true
  },
  "Modalidad": {
    "dataSource": "ut_movilds",
    "public": true
  },
  "Campus": {
    "dataSource": "ut_movilds",
    "public": true
  },
  "Programa": {
    "dataSource": "ut_movilds",
    "public": true
  },
  "Alumno": {
    "dataSource": "ut_movilds",
    "public": true
  },
  "Carga_academica": {
    "dataSource": "ut_movilds",
    "public": true
  },
  "FotosAlumno": {
    "dataSource": "ut_movilds",
    "public": true
  },
  "ClasifVideosUTRM": {
    "dataSource": "ut_movilds",
    "public": true
  }
}
